resources/tilesets/ground_tiles.png
0 0 0 16 16
z 137 167 16 16
z4 120 167 16 16
z6 154 167 16 16
z458 69 115 16 16
t 137 150 16 16
t6 171 116 16 16
t4 137 116 16 16
t7 120 150 16 16
t9 154 150 16 16
t478 137 99 16 16
t896 171 99 16 16
p1 86 116 16 16
p2 103 116 16 16
p3 120 116 16 16