resources/creatures/mario.png
walk_left	5	8 156 16 28 167 156 18 28 127 156 18 28 87 156 18 28 47 156 19 28
walk_right	5	368 156 16 28 207 156 18 28 247 156 18 28 287 156 18 28 326 156 19 28
stop	1	128 76 16 28
crouch	1	288 40 15 17
look_down_left	1	48 196 16 28
look_down_right	1	328 196 16 28
look_up_left	1	129 196 15 27
look_up_right	1	248 196 15 27
stop_left	1	8 196 17 27
stop_right	1	367 196 17 27
look_up	1	171 755 21 29