resources/tilesets/generalTiles.png
0 64 0 16 16
n0 64 0 16 16
jyellow_tube_478 128 0 16 16
jyellow_tube_896 144 0 16 16
yellow_tube_4 128 16 16 16
yellow_tube_6 144 16 16 16
jpurple_tube_478 160 0 16 16
jpurple_tube_896 176 0 16 16
purple_tube_4 160 16 16 16
purple_tube_6 176 16 16 16
jgreen_tube_478 96 0 16 16
jgreen_tube_896 112 0 16 16
green_tube_4 96 16 16 16
green_tube_6 112 16 16 16
jgray_tube_478 96 32 16 16
jgray_tube_896 112 32 16 16
gray_tube_4 96 48 16 16
gray_tube_6 112 48 16 16
jquestion5 48 64 16 16
jquestion_hit 64 64 16 16
jsmiley 0 80 16 16