resources/sheets/human1_walk.png
up	9	0 0 64 64 64 0 64 64 128 0 64 64 192 0 64 64 256 0 64 64 320 0 64 64 384 0 64 64 448 0 64 64 512 0 64 64
left	9	0 64 64 64 64 64 64 64 128 64 64 64 192 64 64 64 256 64 64 64 320 64 64 64 384 64 64 64 448 64 64 64 512 64 64 64
down	9	0 128 64 64 64 128 64 64 128 128 64 64 192 128 64 64 256 128 64 64 320 128 64 64 384 128 64 64 448 128 64 64 512 128 64 64
right	9	0 192 64 64 64 192 64 64 128 192 64 64 192 192 64 64 256 192 64 64 320 192 64 64 384 192 64 64 448 192 64 64 512 192 64 64